<?xml version="1.0" encoding="utf-8"?>
<!-- Generator: Adobe Illustrator 15.1.0, SVG Export Plug-In . SVG Version: 6.00 Build 0)  -->
<!DOCTYPE svg PUBLIC "-//W3C//DTD SVG 1.1//EN" "http://www.w3.org/Graphics/SVG/1.1/DTD/svg11.dtd">
<svg version="1.1" id="Calque_1" xmlns="http://www.w3.org/2000/svg" xmlns:xlink="http://www.w3.org/1999/xlink" x="0px" y="0px"
	 width="27px" height="12px" viewBox="-9 3.458 27 12" enable-background="new -9 3.458 27 12" xml:space="preserve">
<path fill="#767675" d="M10.558,5.604L8.609,3.656H3.74c-0.536,0-0.974,0.438-0.974,0.974v9.739c0,0.536,0.438,0.975,0.974,0.975
	h11.687c0.535,0,0.975-0.438,0.975-0.975V6.578c0-0.535-0.439-0.974-0.975-0.974H10.558z"/>
<polygon fill="#9D9D9C" points="-8.469,10.434 -8.469,4 -2.897,7.217 "/>
</svg>
