<?xml version="1.0" encoding="utf-8"?>
<!-- Generator: Adobe Illustrator 15.0.0, SVG Export Plug-In . SVG Version: 6.00 Build 0)  -->
<!DOCTYPE svg PUBLIC "-//W3C//DTD SVG 1.1//EN" "http://www.w3.org/Graphics/SVG/1.1/DTD/svg11.dtd">
<svg version="1.1" xmlns="http://www.w3.org/2000/svg" xmlns:xlink="http://www.w3.org/1999/xlink" x="0px" y="0px"
	 width="1319.147px" height="212.132px" viewBox="0 0 1319.147 212.132" enable-background="new 0 0 1319.147 212.132"
	 xml:space="preserve">
<g id="Calque_1">
	
		<rect x="12.48" y="54.851" transform="matrix(0.7071 -0.7071 0.7071 0.7071 -47.557 54.8912)" fill="#4174C1" width="60" height="60"/>
	
		<rect x="97.333" y="54.851" transform="matrix(0.7071 -0.7071 0.7071 0.7071 -22.704 114.8913)" fill="#3D6BAE" width="60" height="60"/>
	
		<rect x="182.185" y="54.851" transform="matrix(0.7071 -0.7071 0.7071 0.7071 2.1491 174.8915)" fill="#355A8F" width="60" height="60"/>
	
		<rect x="267.038" y="54.851" transform="matrix(0.7071 -0.7071 0.7071 0.7071 27.0022 234.8916)" fill="#305779" width="60" height="60"/>
	
		<rect x="351.891" y="54.851" transform="matrix(0.7071 -0.7071 0.7071 0.7071 51.8553 294.8918)" fill="#2D4669" width="60" height="60"/>
	
		<rect x="436.743" y="54.851" transform="matrix(0.7071 -0.7071 0.7071 0.7071 76.7083 354.8919)" fill="#293D59" width="60" height="60"/>
</g>
<g id="Calque_1_-_copie_2">
	
		<rect x="54.907" y="97.278" transform="matrix(0.7071 -0.7071 0.7071 0.7071 -65.1308 97.3183)" fill="#273951" width="60" height="60"/>
	
		<rect x="139.76" y="97.278" transform="matrix(0.7071 -0.7071 0.7071 0.7071 -40.2777 157.3184)" fill="#213C51" width="60" height="60"/>
	
		<rect x="224.612" y="97.278" transform="matrix(0.7071 -0.7071 0.7071 0.7071 -15.4246 217.3186)" opacity="0.8" fill="#253847" width="60" height="60"/>
	
		<rect x="309.465" y="97.278" transform="matrix(0.7071 -0.7071 0.7071 0.7071 9.4285 277.3187)" fill="#203B50" width="60" height="60"/>
	
		<rect x="394.317" y="97.278" transform="matrix(0.7071 -0.7071 0.7071 0.7071 34.2815 337.3189)" fill="#1F415D" width="60" height="60"/>
</g>
<g id="Calque_1_-_copie_3">
	
		<rect x="97.334" y="139.705" transform="matrix(0.7071 -0.7071 0.7071 0.7071 -82.7045 139.7454)" opacity="0.3" fill="#0C1524" width="60" height="60"/>
	
		<rect x="182.186" y="139.705" transform="matrix(0.7071 -0.7071 0.7071 0.7071 -57.8514 199.7455)" opacity="0.21" fill="#0C1524" width="60" height="60"/>
	
		<rect x="267.039" y="139.705" transform="matrix(0.7071 -0.7071 0.7071 0.7071 -32.9984 259.7457)" opacity="0.18" fill="#0C1524" width="60" height="60"/>
	
		<rect x="351.892" y="139.705" transform="matrix(0.7071 -0.7071 0.7071 0.7071 -8.1453 319.7458)" opacity="0.15" fill="#0C1524" width="60" height="60"/>
</g>
<g id="Calque_5">
	<polygon opacity="0.12" fill="#0C1524" points="551.595,84.853 466.743,84.853 509.169,42.427 	"/>
	<polygon opacity="0.12" fill="#0C1524" points="636.448,84.853 551.596,84.853 594.022,42.427 	"/>
	<polygon opacity="0.12" fill="#0C1524" points="721.301,84.853 636.448,84.853 678.875,42.427 	"/>
	<polygon opacity="0.12" fill="#0C1524" points="806.154,84.853 721.301,84.853 763.728,42.427 	"/>
	<polygon opacity="0.12" fill="#0C1524" points="891.007,84.853 806.154,84.853 848.58,42.427 	"/>
	<polygon opacity="0.12" fill="#0C1524" points="975.859,84.853 891.007,84.853 933.434,42.427 	"/>
	<polygon opacity="0.1" fill="#0C1524" points="1060.713,84.853 975.859,84.853 1018.286,42.427 	"/>
	<polygon opacity="0.07" fill="#0C1524" points="1145.565,84.853 1060.713,84.853 1103.139,42.427 	"/>
	<polygon opacity="0.03" fill="#0C1524" points="1230.418,84.853 1145.565,84.853 1187.992,42.427 	"/>
	<polygon opacity="0.01" fill="#0C1524" points="1315.271,84.853 1230.418,84.853 1272.845,42.427 	"/>
</g>
<g id="Calque_1_-_copie">
	
		<rect x="521.596" y="12.426" transform="matrix(0.7071 -0.7071 0.7071 0.7071 131.5612 402.4657)" opacity="0.05" fill="#0C1524" width="60" height="60"/>
	
		<rect x="606.448" y="12.426" transform="matrix(0.7071 -0.7071 0.7071 0.7071 156.4142 462.4659)" opacity="0.08" fill="#575756" width="60" height="60"/>
	
		<rect x="691.301" y="12.426" transform="matrix(0.7071 -0.7071 0.7071 0.7071 181.2673 522.4659)" opacity="0.08" fill="#575756" width="60" height="60"/>
	
		<rect x="776.155" y="12.426" transform="matrix(0.7071 -0.7071 0.7071 0.7071 206.1208 582.4672)" opacity="0.08" fill="#706F6F" width="60" height="60"/>
	
		<rect x="861.007" y="12.426" transform="matrix(0.7071 -0.7071 0.7071 0.7071 230.9774 642.4711)" opacity="0.08" fill="#706F6F" width="60" height="60"/>
	
		<rect x="945.86" y="12.426" transform="matrix(0.7071 -0.7071 0.7071 0.7071 255.8232 702.4633)" opacity="0.07" fill="#706F6F" width="60" height="60"/>
	
		<rect x="1030.713" y="12.426" transform="matrix(0.7071 -0.7071 0.7071 0.7071 280.6843 762.4722)" opacity="0.05" fill="#706F6F" width="60" height="60"/>
	
		<rect x="1115.566" y="12.426" transform="matrix(0.7071 -0.7071 0.7071 0.7071 305.538 822.4733)" opacity="0.03" fill="#706F6F" width="60" height="60"/>
	
		<rect x="1200.417" y="12.426" transform="matrix(0.7071 -0.7071 0.7071 0.7071 330.3814 882.4628)" opacity="0.01" fill="#878787" width="60" height="60"/>
</g>
</svg>
