<?xml version="1.0" encoding="utf-8"?>
<!-- Generator: Adobe Illustrator 15.0.0, SVG Export Plug-In . SVG Version: 6.00 Build 0)  -->
<!DOCTYPE svg PUBLIC "-//W3C//DTD SVG 1.1//EN" "http://www.w3.org/Graphics/SVG/1.1/DTD/svg11.dtd">
<svg version="1.1" xmlns="http://www.w3.org/2000/svg" xmlns:xlink="http://www.w3.org/1999/xlink" x="0px" y="0px" width="47px"
	 height="47px" viewBox="219 235 47 47" enable-background="new 219 235 47 47" xml:space="preserve">
<g id="Calque_3">
	<circle fill="#FFFFFF" cx="242.5" cy="258.5" r="22.5"/>
</g>
<g id="Calque_2">
	<path d="M248.716,245.365c0,0-2.671-0.006-4.071,0c-1.308,0.036-2.115,0.31-2.894,0.683c-0.59,0.251-1.403,1.024-1.688,1.642
		c-0.313,0.598-0.438,0.941-0.626,1.962c-0.188,1.021-0.104,4.202-0.104,4.202h-2.684v4.464h2.684v12.962h5.358v-12.962h3.569
		l0.475-4.464h-4.053l0.013-2.519c0,0-0.018-0.483,0.13-0.819c0.151-0.356,0.439-0.488,0.527-0.519
		c0.182-0.064,0.316-0.116,0.65-0.147c0.132-0.001,2.714-0.021,2.714-0.021V245.365z"/>
</g>
</svg>
