<?xml version="1.0" encoding="utf-8"?>
<!-- Generator: Adobe Illustrator 15.0.0, SVG Export Plug-In . SVG Version: 6.00 Build 0)  -->
<!DOCTYPE svg PUBLIC "-//W3C//DTD SVG 1.1//EN" "http://www.w3.org/Graphics/SVG/1.1/DTD/svg11.dtd">
<svg version="1.1" id="Calque_1" xmlns="http://www.w3.org/2000/svg" xmlns:xlink="http://www.w3.org/1999/xlink" x="0px" y="0px"
	 width="280.359px" height="192px" viewBox="0 0 280.359 192" enable-background="new 0 0 280.359 192" xml:space="preserve">
<g id="Calque_1_1_">
	<g enable-background="new    ">
		<path fill="#B5AEA6" d="M118.798,55.387c-4.8-22-22.999-34.599-43.799-34.599c-37.8,0-53.8,31.599-53.8,62.799
			c0,31.2,16,62.799,53.8,62.799c26.399,0,43.199-20.399,45.799-45.8h13.601c-3.801,35-26,57.4-59.399,57.4
			C30,157.986,7.6,122.586,7.6,83.587c0-39,22.4-74.399,67.399-74.399c26.999,0,53.799,16.2,57.399,46.199H118.798z"/>
	</g>
	<g enable-background="new    ">
		<path fill="#0077B4" d="M155.524,12.188h13.601v131.199h79.998v11.6h-93.599V12.188z"/>
	</g>
</g>
<g id="Calque_2">
	<path fill="#B5AEA6" d="M26.739,122.836c0,0-0.081-3.457,0.165-5.598c0.246-2.139,0.74-3.457,1.069-4.688
		c0.33-1.235,0.659-2.882,0.988-3.622s0.823-1.809,0.823-1.809s-0.082,0-0.905-0.248s-1.317-1.4-1.317-1.4l-0.165-0.82
		c0,0-0.075-2.34-0.041-2.922c0.035-0.582,0.124-1.111,0.453-1.688s0.823-0.822,0.823-0.822s0.411-0.246,1.07-0.33
		c0.657-0.082,1.398-0.412,1.893-0.904c0.494-0.496,0.988-0.905,0.988-0.905s0.164-0.329,0.739-0.821
		c0.576-0.495,0.659-0.412,1.234-0.495c0.576-0.082,1.812-0.412,1.812-0.412l0.492-0.164c0,0-0.877-0.904-1.22-1.179
		c-0.343-0.275-0.295-0.645-0.672-1.125c-0.205-0.171-0.171-0.576-0.137-0.988s-0.268-1.068-0.268-1.068s-0.631-0.817-0.802-1.262
		c-0.206-0.274-0.206-0.707-0.515-1.255c-0.309-0.549-0.006-1.681-0.006-1.681s-0.021-0.938,0.082-1.316
		c0.103-0.376,0.321-0.946,0.527-1.322c0.206-0.378,0.666-0.893,0.871-1.065c0.206-0.171,0.356-0.465,0.494-0.74
		c0.137-0.274,0.13-0.713,0.165-0.987c0.035-0.275,0.288-0.665,0.494-0.904c0.205-0.241,0.713-0.733,0.986-0.906
		c0.274-0.171,0.392-0.665,0.494-0.906c0.104-0.239,0.466-0.368,0.741-0.576c0.274-0.205,0.145-0.315,0.247-0.658
		c0.377-0.376,0.267-0.294,0.576-0.33c0.309-0.034,0.7,0.05,0.905,0.083c0.206,0.034,1.618,0.164,1.893,0.164
		s0.857,0.062,1.166-0.11c0.309-0.171,0.507-0.294,0.645-0.465c0.139-0.171,0.563-0.445,0.905-0.412
		c0.343,0.034,0.343,0.392,0.583,0.494s0.651,0.166,0.651,0.166s1.365,0.034,2.222,0.41c0.651,0.24,1.22,0.631,1.563,0.906
		c0.343,0.275,0.897,0.844,1.069,1.152c0.172,0.308,0.68,1.166,0.748,1.646c0.069,0.48,0.056,1.063-0.117,1.337
		c-0.171,0.274-0.514,0.837-0.65,1.008c-0.137,0.171-0.351,0.405-0.351,0.405l0.206,0.211l0.659,0.906c0,0,0.109,0.974,0.247,1.317
		c0.137,0.377,0.274,0.425,0.411,0.492c0.137,0.07,0.61,0.467,0.885,0.64c0.274,0.171,0.877,0.665,0.877,0.665
		s0.535,0.733,0.5,0.939c-0.034,0.206-0.191,0.438-0.535,0.472c-0.343,0.035-0.822,0.166-0.822,0.166s-0.17,0.37,0,0.576
		c0.172,0.206,0.274,0.193,0.445,0.467c0.173,0.274,0.254,0.564,0.254,0.564s0.013,0.431-0.025,0.533s-0.218,0.102-0.321,0.206
		c-0.103,0.103-0.27,0.205-0.27,0.205s0.416,0.088,0.494,0.165c0.076,0.077,0.218,0.22,0.191,0.387
		c-0.025,0.166-0.082,0.365-0.082,0.544c0,0.18-0.062,0.313,0.054,0.467s0.29,0.484,0.367,0.729c0.078,0.244,0.17,0.864-0.107,1.378
		c-0.25,0.466-0.67,0.529-1.165,0.693c-0.494,0.164-2.248,0.845-2.596,1.065c-0.347,0.217-0.619,0.543-0.695,0.826
		c-0.078,0.283,0,0.656,0,0.824c0,0.166-0.036,0.328,0.082,0.575c0.247,0.246,0.411,0.164,0.987,0.328s2.14,0.823,2.14,0.823
		s0.906,0.41,1.646,0.574c0.74,0.164,1.811,0.164,2.797,0.412c0.988,0.246,2.634,0.74,3.292,0.904s2.469,0.494,2.469,0.494
		s0.412,0.658,0.987,0.823c0.576,0.163,1.317,0,1.976,0.163c0.659,0.166,1.233,0.658,1.811,0.988c0.576,0.33,1.07,0.082,1.563,0.41
		c0.493,0.329,0.986,0.411,1.398,0.575c0.411,0.166,0.411,0.578,0.74,0.248c0.33-0.328-0.082-1.233-0.329-1.646
		c-0.247-0.41,0-0.576,0.165-0.986c0.164-0.411,0.329-0.247,0.823-0.741c0.082-0.493,0.741-0.493,0.741-0.493h0.822l1.729-10.781
		l0.412-1.81c0,0,0.493-0.412,0.658-0.164c0.165,0.246,0.082,1.398,0.082,1.398l-1.563,10.781c0,0,0.246,0,0.658,0.164
		s0.165,0.493,0.576,0.659c0.411,0.164,0.575-0.084,0.987,0.328c0.411,0.412,0.247,0.823,0.494,1.235
		c0.247,0.41,0.905,0.574,1.152,1.066c0.247,0.494,0.576,1.729,0.247,2.635c-0.329,0.906-0.906,2.058-1.729,2.881
		c-0.822,0.822-2.386,2.141-3.62,3.207c-0.412,2.059-0.412,3.703-0.412,4.691c0,0.987,0.083,0.576,0.33,1.399
		c0.247,0.821,0.494,1.315,0.329,2.056c-0.165,0.742-0.247,1.729-0.329,2.553c-0.083,0.822,0,2.963,0.329,4.03
		c0.329,1.071,1.317,3.127,1.812,4.363c0.493,1.233,0.658,2.222,0.658,2.222s-0.411,0.493-0.741,0.985
		c-0.329,0.495-1.646,1.563-1.646,1.563l-0.411,0.496c0,0,0.411,0.986,0.411,1.314s0.329,1.07,0.329,1.07s-0.576,0.164,0.823,0.164
		c1.4,0,2.716,0,4.032,0.33c1.316,0.328,3.375,0.822,3.622,1.398s0.575,1.396,0.575,1.396s-3.044,1.481-3.949,1.811
		c-0.905,0.33-2.47,0.74-3.538,0.906c-1.07,0.164-8.477-0.494-9.134-0.742c-0.658-0.246-1.069-1.066-1.069-1.066
		s-0.247-0.988-0.083-1.648c0.036-0.145,0.604,0.055,0.604-0.521s-0.174-1.259-0.174-1.259s-0.759,0.054-1.171-0.192
		c-0.411-0.246-2.304-11.027-2.304-11.027s-3.621,4.775-4.69,6.091c-1.068,1.315-3.95,3.618-4.854,4.442
		c-0.906,0.824-13.742-4.442-15.882-5.679c-2.141-1.233-9.052-8.228-9.874-9.051C26.081,125.469,26.739,122.836,26.739,122.836z"/>
</g>
</svg>
