<?xml version="1.0" encoding="utf-8"?>
<!-- Generator: Adobe Illustrator 19.1.0, SVG Export Plug-In . SVG Version: 6.00 Build 0)  -->
<svg version="1.1" id="Layer_1" xmlns="http://www.w3.org/2000/svg" xmlns:xlink="http://www.w3.org/1999/xlink" x="0px" y="0px"
	 viewBox="0 0 2 200" style="enable-background:new 0 0 2 200;" xml:space="preserve">
<style type="text/css">
	.st0{fill:url(#SVGID_1_);}
</style>
<linearGradient id="SVGID_1_" gradientUnits="userSpaceOnUse" x1="-106.1527" y1="105.7315" x2="93.8473" y2="105.7315" gradientTransform="matrix(-1.346898e-010 -1 1 -1.346898e-010 -104.7315 93.8473)">
	<stop  offset="1.502994e-002" style="stop-color:#000000;stop-opacity:0"/>
	<stop  offset="0.5" style="stop-color:#000000;stop-opacity:0.5"/>
	<stop  offset="0.9871" style="stop-color:#000000;stop-opacity:0"/>
</linearGradient>
<rect x="0" y="0" class="st0" width="2" height="200"/>
</svg>
