<?xml version="1.0" encoding="utf-8"?>
<!-- Generator: Adobe Illustrator 15.0.0, SVG Export Plug-In . SVG Version: 6.00 Build 0)  -->
<!DOCTYPE svg PUBLIC "-//W3C//DTD SVG 1.1//EN" "http://www.w3.org/Graphics/SVG/1.1/DTD/svg11.dtd">
<svg version="1.1" xmlns="http://www.w3.org/2000/svg" xmlns:xlink="http://www.w3.org/1999/xlink" x="0px" y="0px" width="16px"
	 height="16px" viewBox="0 0 16 16" enable-background="new 0 0 16 16" xml:space="preserve">
<g id="Calque_1">
	<circle fill="none" stroke="#9D9D9C" stroke-width="1.4" stroke-miterlimit="10" cx="8" cy="8" r="7.063"/>
</g>
<g id="Calque_2">
	<line fill="none" stroke="#9D9D9C" stroke-width="1.4" stroke-miterlimit="10" x1="3.68" y1="8" x2="12.32" y2="8"/>
</g>
<g id="Calque_2_-_copie">
	<line fill="none" stroke="#9D9D9C" stroke-width="1.4" stroke-miterlimit="10" x1="8" y1="12.32" x2="8" y2="3.68"/>
</g>
<g id="Calque_6" display="none">
	
		<line display="inline" fill="none" stroke="#9D9D9C" stroke-width="1.4" stroke-miterlimit="10" x1="6.749" y1="12.005" x2="11.251" y2="7.503"/>
	
		<line display="inline" fill="none" stroke="#9D9D9C" stroke-width="1.4" stroke-miterlimit="10" x1="6.749" y1="3.995" x2="11.251" y2="8.497"/>
</g>
<g id="Calque_6_-_copie" display="none">
	
		<line display="inline" fill="none" stroke="#9D9D9C" stroke-width="1.4" stroke-miterlimit="10" x1="9.251" y1="3.995" x2="4.749" y2="8.497"/>
	
		<line display="inline" fill="none" stroke="#9D9D9C" stroke-width="1.4" stroke-miterlimit="10" x1="9.251" y1="12.005" x2="4.749" y2="7.503"/>
</g>
<g id="Calque_7" display="none">
	
		<line display="inline" fill="none" stroke="#9D9D9C" stroke-width="1.4" stroke-miterlimit="10" x1="4.945" y1="11.055" x2="11.055" y2="4.945"/>
	
		<line display="inline" fill="none" stroke="#9D9D9C" stroke-width="1.4" stroke-miterlimit="10" x1="4.945" y1="4.945" x2="11.055" y2="11.055"/>
</g>
<g id="Calque_8" display="none">
	
		<line display="inline" fill="none" stroke="#9D9D9C" stroke-width="1.4" stroke-miterlimit="10" x1="3.422" y1="12.578" x2="12.578" y2="3.422"/>
</g>
</svg>
