<?xml version="1.0" encoding="utf-8"?>
<!-- Generator: Adobe Illustrator 19.1.0, SVG Export Plug-In . SVG Version: 6.00 Build 0)  -->
<svg version="1.1" id="Layer_1" xmlns="http://www.w3.org/2000/svg" xmlns:xlink="http://www.w3.org/1999/xlink" x="0px" y="0px"
	 viewBox="5 93 16 16" style="enable-background:new 5 93 16 16;" xml:space="preserve">
<style type="text/css">
	.st0{display:none;}
	.st1{display:inline;fill:none;stroke:#9D9D9C;stroke-width:1.4;stroke-miterlimit:10;}
	.st2{fill:none;stroke:#9D9D9C;stroke-width:1.4;stroke-miterlimit:10;}
</style>
<g id="Calque_1" class="st0">
	<circle class="st1" cx="13" cy="101" r="7.1"/>
</g>
<g id="Calque_2">
	<line class="st2" x1="8.7" y1="101" x2="17.3" y2="101"/>
</g>
<g id="Calque_2_-_copie">
	<line class="st2" x1="13" y1="105.3" x2="13" y2="96.7"/>
</g>
<g id="Layer_2">
	<rect x="6.3" y="94.3" class="st2" width="13.5" height="13.5"/>
</g>
<g id="Calque_6" class="st0">
	<line class="st1" x1="11.7" y1="105" x2="16.3" y2="100.5"/>
	<line class="st1" x1="11.7" y1="97" x2="16.3" y2="101.5"/>
</g>
<g id="Calque_6_-_copie" class="st0">
	<line class="st1" x1="14.3" y1="97" x2="9.7" y2="101.5"/>
	<line class="st1" x1="14.3" y1="105" x2="9.7" y2="100.5"/>
</g>
<g id="Calque_7" class="st0">
	<line class="st1" x1="9.9" y1="104.1" x2="16.1" y2="97.9"/>
	<line class="st1" x1="9.9" y1="97.9" x2="16.1" y2="104.1"/>
</g>
<g id="Calque_8" class="st0">
	<line class="st1" x1="8.4" y1="105.6" x2="17.6" y2="96.4"/>
</g>
</svg>
