<?xml version="1.0" encoding="utf-8"?>
<!-- Generator: Adobe Illustrator 15.0.0, SVG Export Plug-In . SVG Version: 6.00 Build 0)  -->
<!DOCTYPE svg PUBLIC "-//W3C//DTD SVG 1.1//EN" "http://www.w3.org/Graphics/SVG/1.1/DTD/svg11.dtd">
<svg version="1.1" id="Layer_3" xmlns="http://www.w3.org/2000/svg" xmlns:xlink="http://www.w3.org/1999/xlink" x="0px" y="0px"
	 width="13px" height="10px" viewBox="0 0 13 10" enable-background="new 0 0 13 10" xml:space="preserve">
<g>
	<polygon fill="#007CB7" points="2.386,4.25 6.636,4.25 4.948,2.5 7.011,2.5 9.469,5 7.011,7.5 4.948,7.5 6.636,5.75 2.386,5.75 	
		"/>
</g>
<rect x="9.156" y="2.5" fill="#007CB7" width="1.459" height="5"/>
</svg>
